project_00/project_00.sim/sim_1/behav/xsim/tmr_tb.vcd
$date
   Sun Apr  5 18:48:39 2026
$end

$version
  2025.2
  $dumpfile ("tmr_tb.vcd") 
$end

$timescale
  1ps
$end

$scope module tmr_tb $end
$var reg 1 ! clk $end
$var reg 1 " reset $end
$var reg 32 # fault_inject [31:0] $end
$var reg 1 $ fault_enable $end
$var wire 32 % pc_out_debug [31:0] $end
$var wire 1 & fault_detected $end
$scope module uut $end
$var wire 1 ' clk $end
$var wire 1 ( reset $end
$var wire 32 ) fault_inject [31:0] $end
$var wire 1 * fault_enable $end
$var reg 32 + pc_out_debug [31:0] $end
$var wire 1 & fault_detected $end
$var wire 32 , pc1 [31:0] $end
$var wire 32 - pc2 [31:0] $end
$var wire 32 . pc3 [31:0] $end
$var wire 32 / pc2_actual [31:0] $end
$var wire 2 0 correct_cpu [1:0] $end
$var wire 1 1 ml_fault_detected $end
$var reg 32 2 last_good_pc [31:0] $end
$scope module CPU1 $end
$var wire 1 ' clk $end
$var wire 1 ( reset $end
$var wire 32 , pc_out_debug [31:0] $end
$var wire 32 3 pc_out [31:0] $end
$var wire 32 4 pc_next [31:0] $end
$var wire 32 5 instr [31:0] $end
$var wire 32 6 rd1 [31:0] $end
$var wire 32 7 rd2 [31:0] $end
$var wire 32 8 wd [31:0] $end
$var wire 32 9 alu_result [31:0] $end
$var wire 32 : imm [31:0] $end
$var wire 32 ; alu_b [31:0] $end
$var wire 32 < dmem_rd [31:0] $end
$var wire 1 = zero $end
$var wire 1 > branch $end
$var wire 1 ? memread $end
$var wire 1 @ memtoreg $end
$var wire 1 A memwrite $end
$var wire 1 B alusrc $end
$var wire 1 C regwrite $end
$var wire 2 D aluop [1:0] $end
$var wire 4 E alu_ctrl [3:0] $end
$var wire 1 F pcsrc $end
$scope module PC $end
$var wire 1 ' clk $end
$var wire 1 ( reset $end
$var wire 32 4 pc_next [31:0] $end
$var reg 32 G pc_out [31:0] $end
$upscope $end
$scope module IMEM $end
$var wire 32 3 addr [31:0] $end
$var wire 32 5 instr [31:0] $end
$upscope $end
$scope module CTRL $end
$var wire 7 H opcode [6:0] $end
$var reg 1 I branch $end
$var reg 1 J memread $end
$var reg 1 K memtoreg $end
$var reg 2 L aluop [1:0] $end
$var reg 1 M memwrite $end
$var reg 1 N alusrc $end
$var reg 1 O regwrite $end
$upscope $end
$scope module RF $end
$var wire 1 ' clk $end
$var wire 1 ( reset $end
$var wire 1 C we $end
$var wire 5 P rs1 [19:15] $end
$var wire 5 Q rs2 [24:20] $end
$var wire 5 R rd [11:7] $end
$var wire 32 8 wd [31:0] $end
$var wire 32 6 rd1 [31:0] $end
$var wire 32 7 rd2 [31:0] $end
$var integer 32 S i [31:0] $end
$upscope $end
$scope module ALU $end
$var wire 32 6 a [31:0] $end
$var wire 32 ; b [31:0] $end
$var wire 4 E alu_ctrl [3:0] $end
$var reg 32 T result [31:0] $end
$var wire 1 = zero $end
$upscope $end
$scope module DMEM $end
$var wire 1 ' clk $end
$var wire 1 A we $end
$var wire 32 9 addr [31:0] $end
$var wire 32 7 wd [31:0] $end
$var wire 32 < rd [31:0] $end
$upscope $end
$upscope $end
$scope module CPU2 $end
$var wire 1 ' clk $end
$var wire 1 ( reset $end
$var wire 32 - pc_out_debug [31:0] $end
$var wire 32 U pc_out [31:0] $end
$var wire 32 V pc_next [31:0] $end
$var wire 32 W instr [31:0] $end
$var wire 32 X rd1 [31:0] $end
$var wire 32 Y rd2 [31:0] $end
$var wire 32 Z wd [31:0] $end
$var wire 32 [ alu_result [31:0] $end
$var wire 32 \ imm [31:0] $end
$var wire 32 ] alu_b [31:0] $end
$var wire 32 ^ dmem_rd [31:0] $end
$var wire 1 _ zero $end
$var wire 1 ` branch $end
$var wire 1 a memread $end
$var wire 1 b memtoreg $end
$var wire 1 c memwrite $end
$var wire 1 d alusrc $end
$var wire 1 e regwrite $end
$var wire 2 f aluop [1:0] $end
$var wire 4 g alu_ctrl [3:0] $end
$var wire 1 h pcsrc $end
$scope module PC $end
$var wire 1 ' clk $end
$var wire 1 ( reset $end
$var wire 32 V pc_next [31:0] $end
$var reg 32 i pc_out [31:0] $end
$upscope $end
$scope module IMEM $end
$var wire 32 U addr [31:0] $end
$var wire 32 W instr [31:0] $end
$upscope $end
$scope module CTRL $end
$var wire 7 j opcode [6:0] $end
$var reg 1 k branch $end
$var reg 1 l memread $end
$var reg 1 m memtoreg $end
$var reg 2 n aluop [1:0] $end
$var reg 1 o memwrite $end
$var reg 1 p alusrc $end
$var reg 1 q regwrite $end
$upscope $end
$scope module RF $end
$var wire 1 ' clk $end
$var wire 1 ( reset $end
$var wire 1 e we $end
$var wire 5 r rs1 [19:15] $end
$var wire 5 s rs2 [24:20] $end
$var wire 5 t rd [11:7] $end
$var wire 32 Z wd [31:0] $end
$var wire 32 X rd1 [31:0] $end
$var wire 32 Y rd2 [31:0] $end
$var integer 32 u i [31:0] $end
$upscope $end
$scope module ALU $end
$var wire 32 X a [31:0] $end
$var wire 32 ] b [31:0] $end
$var wire 4 g alu_ctrl [3:0] $end
$var reg 32 v result [31:0] $end
$var wire 1 _ zero $end
$upscope $end
$scope module DMEM $end
$var wire 1 ' clk $end
$var wire 1 c we $end
$var wire 32 [ addr [31:0] $end
$var wire 32 Y wd [31:0] $end
$var wire 32 ^ rd [31:0] $end
$upscope $end
$upscope $end
$scope module CPU3 $end
$var wire 1 ' clk $end
$var wire 1 ( reset $end
$var wire 32 . pc_out_debug [31:0] $end
$var wire 32 w pc_out [31:0] $end
$var wire 32 x pc_next [31:0] $end
$var wire 32 y instr [31:0] $end
$var wire 32 z rd1 [31:0] $end
$var wire 32 { rd2 [31:0] $end
$var wire 32 | wd [31:0] $end
$var wire 32 } alu_result [31:0] $end
$var wire 32 ~ imm [31:0] $end
$var wire 32 !! alu_b [31:0] $end
$var wire 32 "! dmem_rd [31:0] $end
$var wire 1 #! zero $end
$var wire 1 $! branch $end
$var wire 1 %! memread $end
$var wire 1 &! memtoreg $end
$var wire 1 '! memwrite $end
$var wire 1 (! alusrc $end
$var wire 1 )! regwrite $end
$var wire 2 *! aluop [1:0] $end
$var wire 4 +! alu_ctrl [3:0] $end
$var wire 1 ,! pcsrc $end
$scope module PC $end
$var wire 1 ' clk $end
$var wire 1 ( reset $end
$var wire 32 x pc_next [31:0] $end
$var reg 32 -! pc_out [31:0] $end
$upscope $end
$scope module IMEM $end
$var wire 32 w addr [31:0] $end
$var wire 32 y instr [31:0] $end
$upscope $end
$scope module CTRL $end
$var wire 7 .! opcode [6:0] $end
$var reg 1 /! branch $end
$var reg 1 0! memread $end
$var reg 1 1! memtoreg $end
$var reg 2 2! aluop [1:0] $end
$var reg 1 3! memwrite $end
$var reg 1 4! alusrc $end
$var reg 1 5! regwrite $end
$upscope $end
$scope module RF $end
$var wire 1 ' clk $end
$var wire 1 ( reset $end
$var wire 1 )! we $end
$var wire 5 6! rs1 [19:15] $end
$var wire 5 7! rs2 [24:20] $end
$var wire 5 8! rd [11:7] $end
$var wire 32 | wd [31:0] $end
$var wire 32 z rd1 [31:0] $end
$var wire 32 { rd2 [31:0] $end
$var integer 32 9! i [31:0] $end
$upscope $end
$scope module ALU $end
$var wire 32 z a [31:0] $end
$var wire 32 !! b [31:0] $end
$var wire 4 +! alu_ctrl [3:0] $end
$var reg 32 :! result [31:0] $end
$var wire 1 #! zero $end
$upscope $end
$scope module DMEM $end
$var wire 1 ' clk $end
$var wire 1 '! we $end
$var wire 32 } addr [31:0] $end
$var wire 32 { wd [31:0] $end
$var wire 32 "! rd [31:0] $end
$upscope $end
$upscope $end
$scope module ML_VOTER $end
$var wire 1 ' clk $end
$var wire 1 ( reset $end
$var wire 32 , cpu0_pc [31:0] $end
$var wire 32 / cpu1_pc [31:0] $end
$var wire 32 . cpu2_pc [31:0] $end
$var reg 2 ;! correct_cpu [1:0] $end
$var reg 1 <! fault_detected $end
$var real 32 =! x0 $end
$var real 32 >! x1 $end
$var real 32 ?! x2 $end
$var real 32 @! max_val $end
$var integer 32 A! i [31:0] $end
$var integer 32 B! best [31:0] $end
$upscope $end
$upscope $end
$upscope $end
$enddefinitions $end

#0
$dumpvars
0!
b101 !!
1"
bx "!
b0 #
0#!
0$
0$!
b0 %
0%!
0&
0&!
0'
0'!
1(
1(!
b0 )
1)!
0*
b10 *!
b0 +
b0 +!
b0 ,
0,!
b0 -
b0 -!
b0 .
b10011 .!
b0 /
0/!
b0 0
00!
01
01!
b0 2
b10 2!
b0 3
03!
b100 4
14!
b10100000000000010010011 5
15!
b0 6
b0 6!
b0 7
b101 7!
b101 8
b1 8!
b101 9
b100000 9!
b101 :
b101 :!
b101 ;
b0 ;!
bx <
0<!
0=
r0 =!
0>
r0 >!
0?
r0 ?!
0@
r0 @!
0A
bx A!
1B
bx B!
1C
b10 D
b0 E
0F
b0 G
b10011 H
0I
0J
0K
b10 L
0M
1N
1O
b0 P
b101 Q
b1 R
b100000 S
b101 T
b0 U
b100 V
b10100000000000010010011 W
b0 X
b0 Y
b101 Z
b101 [
b101 \
b101 ]
bx ^
0_
0`
0a
0b
0c
1d
1e
b10 f
b0 g
0h
b0 i
b10011 j
0k
0l
0m
b10 n
0o
1p
1q
b0 r
b101 s
b1 t
b100000 u
b101 v
b0 w
b100 x
b10100000000000010010011 y
b0 z
b0 {
b101 |
b101 }
b101 ~
$end

#5000
1!
1'
b100000 9!
b100000 S
b100000 u

#10000
0!
0'

#15000
1!
1'
b100000 9!
b100000 S
b100000 u

#20000
0!
0"
0'
0(

#25000
1!
b1010 !!
1'
b100 ,
b100 -
b100 -!
b100 .
b10011 .!
b100 /
b100 3
b1000 4
b101000000000000100010011 5
b0 6!
b1010 7!
b1010 8
b10 8!
b1010 9
b1010 :
b1010 :!
b1010 ;
r-0.5670551914533712 =!
r-0.6020753670114111 >!
r-0.5597387246064195 ?!
r3.128004571302498 @!
b1000 A!
b0 B!
b100 G
b10011 H
b0 P
b1010 Q
b10 R
b1010 T
b100 U
b1000 V
b101000000000000100010011 W
b1010 Z
b1010 [
b1010 \
b1010 ]
b100 i
b10011 j
b0 r
b1010 s
b10 t
b1010 v
b100 w
b1000 x
b101000000000000100010011 y
b1010 |
b1010 }
b1010 ~

#30000
0!
0'

#35000
1!
b1010 !!
b100 %
1'
0(!
b100 +
b1000 ,
b1000 -
b1000 -!
b1000 .
b110011 .!
b1000 /
b1000 3
b1100 4
04!
b1000001000000110110011 5
b101 6
b1 6!
b1010 7
b10 7!
b1111 8
b11 8!
b1111 9
b10 :
b1111 :!
b1010 ;
r-0.5670543570452334 =!
r-0.6020745471110004 >!
r-0.5597378856972173 ?!
r3.127982010791138 @!
b1000 A!
0B
b1000 G
b110011 H
0N
b1 P
b10 Q
b11 R
b1111 T
b1000 U
b1100 V
b1000001000000110110011 W
b101 X
b1010 Y
b1111 Z
b1111 [
b10 \
b1010 ]
0d
b1000 i
b110011 j
0p
b1 r
b10 s
b11 t
b1111 v
b1000 w
b1100 x
b1000001000000110110011 y
b101 z
b1010 {
b1111 |
b1111 }
b10 ~

#40000
0!
0'

#45000
1!
b101 !!
b1000 %
1'
b1000 +
b1100 ,
b1100 -
b1100 -!
b1100 .
b110011 .!
b1100 /
b100 2
b1100 3
b10000 4
b1000000000100011000000110110011 5
b1111 6
b11 6!
b101 7
b1 7!
b10100 8
b11 8!
b10100 9
b10000000001 :
b10100 :!
b101 ;
r-0.5670535226370957 =!
r-0.6020737272105896 >!
r-0.5597370467880149 ?!
r3.12795945027979 @!
b1000 A!
b1100 G
b110011 H
b11 P
b1 Q
b11 R
b10100 T
b1100 U
b10000 V
b1000000000100011000000110110011 W
b1111 X
b101 Y
b10100 Z
b10100 [
b10000000001 \
b101 ]
b1100 i
b110011 j
b11 r
b1 s
b11 t
b10100 v
b1100 w
b10000 x
b1000000000100011000000110110011 y
b1111 z
b101 {
b10100 |
b10100 }
b10000000001 ~

#50000
0!
0'

#55000
1!
b0 !!
b1100 %
1'
b1100 +
b10000 ,
b10000 -
b10000 -!
b10000 .
b110011 .!
b10000 /
b1000 2
b10000 3
b10100 4
b10000001010001000110011 5
b101 6
b1 6!
b0 7
b100 7!
b101 8
b100 8!
b101 9
b100 :
b101 :!
b0 ;
r-0.5670526882289579 =!
r-0.6020729073101789 >!
r-0.5597362078788127 ?!
r3.127936889768435 @!
b1000 A!
b10000 G
b110011 H
b1 P
b100 Q
b100 R
b101 T
b10000 U
b10100 V
b10000001010001000110011 W
b101 X
b0 Y
b101 Z
b101 [
b100 \
b0 ]
b10000 i
b110011 j
b1 r
b100 s
b100 t
b101 v
b10000 w
b10100 x
b10000001010001000110011 y
b101 z
b0 {
b101 |
b101 }
b100 ~

#60000
0!
0'

#65000
1!
b0 !!
1#!
b10000 %
1'
1(!
b10000 +
b10100 ,
b10100 -
b10100 -!
b10100 .
b10011 .!
b10100 /
b1100 2
b10100 3
b11000 4
14!
b10011 5
b0 6
b0 6!
b0 7
b0 7!
b0 8
b0 8!
b0 9
b0 :
b0 :!
b0 ;
1=
r-0.5670518538208201 =!
r-0.6020720874097681 >!
r-0.5597353689696105 ?!
r3.127914329257083 @!
b1000 A!
1B
b10100 G
b10011 H
1N
b0 P
b0 Q
b0 R
b0 T
b10100 U
b11000 V
b10011 W
b0 X
b0 Y
b0 Z
b0 [
b0 \
b0 ]
1_
1d
b10100 i
b10011 j
1p
b0 r
b0 s
b0 t
b0 v
b10100 w
b11000 x
b10011 y
b0 z
b0 {
b0 |
b0 }
b0 ~

#70000
0!
0'

#75000
1!
bx !!
x#!
b10100 %
1'
0(!
0)!
b0 *!
b10100 +
b0 +!
b11000 ,
b11000 -
b11000 -!
b11000 .
bx .!
b11000 /
b10000 2
b0 2!
b11000 3
b11100 4
04!
bx 5
05!
bx 6
bx 6!
bx 7
bx 7!
bx 8
bx 8!
bx 9
bx :
bx :!
bx ;
x=
r-0.5670510194126824 =!
r-0.6020712675093574 >!
r-0.5597345300604083 ?!
r3.127891768745735 @!
b1000 A!
0B
0C
b0 D
b0 E
b11000 G
bx H
b0 L
0N
0O
bx P
bx Q
bx R
bx T
b11000 U
b11100 V
bx W
bx X
bx Y
bx Z
bx [
bx \
bx ]
x_
0d
0e
b0 f
b0 g
b11000 i
bx j
b0 n
0p
0q
bx r
bx s
bx t
bx v
b11000 w
b11100 x
bx y
bx z
bx {
bx |
bx }
bx ~

#80000
0!
0'

#85000
1!
b11000 %
1'
b11000 +
b11100 ,
b11100 -
b11100 -!
b11100 .
b11100 /
b10100 2
b11100 3
b100000 4
r-0.5670501850045446 =!
r-0.6020704476089467 >!
r-0.559733691151206 ?!
r3.12786920823438 @!
b1000 A!
b11100 G
b11100 U
b100000 V
b11100 i
b11100 w
b100000 x

#90000
0!
0'

#95000
1!
b11100 %
1'
b11100 +
b100000 ,
b100000 -
b100000 -!
b100000 .
b100000 /
b11000 2
b100000 3
b100100 4
r-0.5670493505964069 =!
r-0.6020696277085359 >!
r-0.5597328522420038 ?!
r3.127846647723031 @!
b1000 A!
b100000 G
b100000 U
b100100 V
b100000 i
b100000 w
b100100 x

#100000
0!
0'

#105000
1!
b100000 %
1'
b100000 +
b100100 ,
b100100 -
b100100 -!
b100100 .
b100100 /
b11100 2
b100100 3
b101000 4
r-0.5670485161882691 =!
r-0.6020688078081251 >!
r-0.5597320133328015 ?!
r3.127824087211675 @!
b1000 A!
b100100 G
b100100 U
b101000 V
b100100 i
b100100 w
b101000 x

#110000
0!
0'

#115000
1!
b100100 %
1'
b100100 +
b101000 ,
b101000 -
b101000 -!
b101000 .
b101000 /
b100000 2
b101000 3
b101100 4
r-0.5670476817801314 =!
r-0.6020679879077144 >!
r-0.5597311744235993 ?!
r3.127801526700325 @!
b1000 A!
b101000 G
b101000 U
b101100 V
b101000 i
b101000 w
b101100 x

#120000
0!
b11011110101011011011111011101111 #
1$
0'
b11011110101011011011111011101111 )
1*
b11011110101011011011111011101111 /

#125000
1!
b101000 %
1&
1'
b101000 +
b101100 ,
b101100 -
b101100 -!
b101100 .
b1 0
11
b100100 2
b101100 3
b110000 4
b1 ;!
1<!
r-0.5670468473719936 =!
r-115.1910978889425 >!
r-0.559730335514397 ?!
r1258.4339184703 @!
b1000 A!
b1 B!
b101100 G
b101100 U
b110000 V
b101100 i
b101100 w
b110000 x

#130000
0!
0'

#135000
1!
b100100 %
1'
b100100 +
b110000 ,
b110000 -
b110000 -!
b110000 .
b110000 3
b110100 4
r-0.5670460129638558 =!
r-0.5597294966051948 ?!
r1258.433930391961 @!
b1000 A!
b1 B!
b110000 G
b110000 U
b110100 V
b110000 i
b110000 w
b110100 x

#140000
0!
0'

#145000
1!
1'
b110100 ,
b110100 -
b110100 -!
b110100 .
b110100 3
b111000 4
r-0.5670451785557181 =!
r-0.5597286576959926 ?!
r1258.433942313621 @!
b1000 A!
b1 B!
b110100 G
b110100 U
b111000 V
b110100 i
b110100 w
b111000 x

#150000
0!
0'

#155000
1!
1'
b111000 ,
b111000 -
b111000 -!
b111000 .
b111000 3
b111100 4
r-0.5670443441475803 =!
r-0.5597278187867903 ?!
r1258.433954235282 @!
b1000 A!
b1 B!
b111000 G
b111000 U
b111100 V
b111000 i
b111000 w
b111100 x

#160000
0!
0'

#165000
1!
1'
b111100 ,
b111100 -
b111100 -!
b111100 .
b111100 3
b1000000 4
r-0.5670435097394426 =!
r-0.559726979877588 ?!
r1258.433966156942 @!
b1000 A!
b1 B!
b111100 G
b111100 U
b1000000 V
b111100 i
b111100 w
b1000000 x

#170000
0!
0'

#175000
1!
1'
b1000000 ,
b1000000 -
b1000000 -!
b1000000 .
b1000000 3
b1000100 4
r-0.5670426753313048 =!
r-0.5597261409683858 ?!
r1258.433978078602 @!
b1000 A!
b1 B!
b1000000 G
b1000000 U
b1000100 V
b1000000 i
b1000000 w
b1000100 x

#180000
0!
0'

#185000
1!
1'
b1000100 ,
b1000100 -
b1000100 -!
b1000100 .
b1000100 3
b1001000 4
r-0.5670418409231671 =!
r-0.5597253020591836 ?!
r1258.433990000262 @!
b1000 A!
b1 B!
b1000100 G
b1000100 U
b1001000 V
b1000100 i
b1000100 w
b1001000 x

#190000
0!
0'

#195000
1!
1'
b1001000 ,
b1001000 -
b1001000 -!
b1001000 .
b1001000 3
b1001100 4
r-0.5670410065150293 =!
r-0.5597244631499814 ?!
r1258.434001921923 @!
b1000 A!
b1 B!
b1001000 G
b1001000 U
b1001100 V
b1001000 i
b1001000 w
b1001100 x

#200000
0!
0'

#205000
1!
1'
b1001100 ,
b1001100 -
b1001100 -!
b1001100 .
b1001100 3
b1010000 4
r-0.5670401721068915 =!
r-0.559723624240779 ?!
r1258.434013843583 @!
b1000 A!
b1 B!
b1001100 G
b1001100 U
b1010000 V
b1001100 i
b1001100 w
b1010000 x

#210000
0!
0'

#215000
1!
1'
b1010000 ,
b1010000 -
b1010000 -!
b1010000 .
b1010000 3
b1010100 4
r-0.5670393376987538 =!
r-0.5597227853315768 ?!
r1258.434025765243 @!
b1000 A!
b1 B!
b1010000 G
b1010000 U
b1010100 V
b1010000 i
b1010000 w
b1010100 x

#220000
0!
b0 #
0$
0'
b0 )
0*
b1010000 /

#225000
1!
0&
1'
b1010100 ,
b1010100 -
b1010100 -!
b1010100 .
b1010100 /
b0 0
01
b1010100 3
b1011000 4
b0 ;!
0<!
r-0.567038503290616 =!
r-0.6020589690031962 >!
r-0.5597219464223746 ?!
r3.127553361075448 @!
b1000 A!
b0 B!
b1010100 G
b1010100 U
b1011000 V
b1010100 i
b1010100 w
b1011000 x

#230000
0!
0'

#235000
1!
b1010100 %
1'
b1010100 +
b1011000 ,
b1011000 -
b1011000 -!
b1011000 .
b1011000 /
b1011000 3
b1011100 4
r-0.5670376688824783 =!
r-0.6020581491027855 >!
r-0.5597211075131724 ?!
r3.127530800564101 @!
b1000 A!
b1011000 G
b1011000 U
b1011100 V
b1011000 i
b1011000 w
b1011100 x

#240000
0!
0'

#245000
1!
b1011000 %
1'
b1011000 +
b1011100 ,
b1011100 -
b1011100 -!
b1011100 .
b1011100 /
b1010100 2
b1011100 3
b1100000 4
r-0.5670368344743405 =!
r-0.6020573292023748 >!
r-0.5597202686039701 ?!
r3.127508240052748 @!
b1000 A!
b1011100 G
b1011100 U
b1100000 V
b1011100 i
b1011100 w
b1100000 x

#250000
0!
0'

#255000
1!
b1011100 %
1'
b1011100 +
b1100000 ,
b1100000 -
b1100000 -!
b1100000 .
b1100000 /
b1011000 2
b1100000 3
b1100100 4
r-0.5670360000662028 =!
r-0.602056509301964 >!
r-0.5597194296947678 ?!
r3.127485679541399 @!
b1000 A!
b1100000 G
b1100000 U
b1100100 V
b1100000 i
b1100000 w
b1100100 x

#260000
0!
0'

#265000
1!
b1100000 %
1'
b1100000 +
b1100100 ,
b1100100 -
b1100100 -!
b1100100 .
b1100100 /
b1011100 2
b1100100 3
b1101000 4
r-0.567035165658065 =!
r-0.6020556894015533 >!
r-0.5597185907855656 ?!
r3.127463119030043 @!
b1000 A!
b1100100 G
b1100100 U
b1101000 V
b1100100 i
b1100100 w
b1101000 x

#270000
0!
0'

#275000
1!
b1100100 %
1'
b1100100 +
b1101000 ,
b1101000 -
b1101000 -!
b1101000 .
b1101000 /
b1100000 2
b1101000 3
b1101100 4
r-0.5670343312499273 =!
r-0.6020548695011425 >!
r-0.5597177518763634 ?!
r3.127440558518695 @!
b1000 A!
b1101000 G
b1101000 U
b1101100 V
b1101000 i
b1101000 w
b1101100 x

#280000
0!
0'

#285000
1!
b1101000 %
1'
b1101000 +
b1101100 ,
b1101100 -
b1101100 -!
b1101100 .
b1101100 /
b1100100 2
b1101100 3
b1110000 4
r-0.5670334968417895 =!
r-0.6020540496007318 >!
r-0.5597169129671611 ?!
r3.127417998007342 @!
b1000 A!
b1101100 G
b1101100 U
b1110000 V
b1101100 i
b1101100 w
b1110000 x

#290000
0!
0'

#295000
1!
b1101100 %
1'
b1101100 +
b1110000 ,
b1110000 -
b1110000 -!
b1110000 .
b1110000 /
b1101000 2
b1110000 3
b1110100 4
r-0.5670326624336517 =!
r-0.602053229700321 >!
r-0.5597160740579589 ?!
r3.127395437495986 @!
b1000 A!
b1110000 G
b1110000 U
b1110100 V
b1110000 i
b1110000 w
b1110100 x

#300000
0!
0'

#305000
1!
b1110000 %
1'
b1110000 +
b1110100 ,
b1110100 -
b1110100 -!
b1110100 .
b1110100 /
b1101100 2
b1110100 3
b1111000 4
r-0.567031828025514 =!
r-0.6020524097999103 >!
r-0.5597152351487567 ?!
r3.127372876984636 @!
b1000 A!
b1110100 G
b1110100 U
b1111000 V
b1110100 i
b1110100 w
b1111000 x

